{
  mode: 'peer',
  connect: {
    endpoints: ["tcp/zenoh1:7447"],
  },
  scouting: {
    gossip: {
      enabled: true,
      multihop: false,
      autoconnect: { peer: "router|peer" },
    },
  },

  plugins: {
    // Configuration of "storage_manager" plugin:
    storage_manager: {
      volumes: {
        s3: {
          // AWS region to which connect (see https://docs.aws.amazon.com/general/latest/gr/s3.html).
          // This field is mandatory if you are going to communicate with an AWS S3 server and
          // optional in case you are working with a MinIO S3 server.
          region: "eu-north-1",

          // Endpoint where the S3 server is located.
          // This parameter allows you to specify a custom endpoint when working with a MinIO S3
          // server.
          // This field is mandatory if you are working with a MinIO server and optional in case
          // you are working with an AWS S3 server as long as you specified the region, in which
          // case the endpoint will be resolved automatically.
//          url: "https://s3.eu-north-1.amazonaws.com",
          url: "http://minio:9000",

          // Optional TLS specific parameters to enable HTTPS with MinIO. Configuration shared by
          // all the associated storages.
          // tls: {
          //  private: {
          //    // Certificate authority to authenticate the server.
          //    root_ca_certificate_file: "/home/user/certificates/minio/ca.pem",
          //
          //    // Alternatively you can inline your certificate encoded with base 64:
          //    root_ca_certificate_base64: "<YOUR_CERTIFICATE_ENCODED_WITH_BASE64>"
          //  }
          //},
        },
      },
      storages: {
        // Configuration of a "demo" storage using the S3 volume. Each storage is associated to a
        // single S3 bucket.
        s3_storage: {
          // The key expression this storage will subscribe to
          key_expr: "myhome/**",

          // this prefix will be stripped from the received key when converting to database key.
          // i.e.: "demo/example/a/b" will be stored as "a/b"
          strip_prefix: "myhome",

          volume: {
            // Id of the volume this storage is associated to
            id: "s3",

            // Bucket to which this storage is associated to
            bucket: "zenoh-test-bucket-imu",

            // The storage attempts to create the bucket, but if the bucket already exists and is
            // owned by you, then with 'reuse_bucket' you can associate that preexisting bucket to
            // the storage, otherwise it will fail.
            reuse_bucket: true,

            // If the storage is read only, it will only handle GET requests
            read_only: false,

            // strategy on storage closure, either `destroy_bucket` or `do_nothing`
            on_closure: "do_nothing",

            private: {
              // Credentials for interacting with the S3 bucket
              access_key: "zenoh-user",
              secret_key: "zenoh-user-pass",
            },
          },
        },
      },
    },
    // Optionally, add the REST plugin
    rest: { http_port: 8000 },
  }
}